{
  "entries": [
    {
      "entry": "./lib/webparts/powerBiGallery/PowerBiGalleryWebPart.js",
      "manifest": "./src/webparts/powerBiGallery/PowerBiGalleryWebPart.manifest.json",
      "outputPath": "./dist/power-bi-gallery.bundle.js"
    }
  ],
  "externals": {},
  "localizedResources": {
    "powerBiGalleryStrings": "webparts/powerBiGallery/loc/{locale}.js"
  }
}
