{
  "solution": {
    "name": "power-bi-gallery-client-side-solution",
    "id": "fc404768-b68f-4532-87d2-45d18b176119",
    "version": "1.0.0.0"
  },
  "paths": {
    "zippedPackage": "solution/power-bi-gallery.sppkg"
  }
}
